%YAML 1.1
%TAG !u! tag:unity3d.com,2011:
--- !u!114 &11400000
MonoBehaviour:
  m_ObjectHideFlags: 0
  m_CorrespondingSourceObject: {fileID: 0}
  m_PrefabInstance: {fileID: 0}
  m_PrefabAsset: {fileID: 0}
  m_GameObject: {fileID: 0}
  m_Enabled: 1
  m_EditorHideFlags: 0
  m_Script: {fileID: 11500000, guid: 512d494ea7eda7149b2b897962edfe91, type: 3}
  m_Name: AymericCheckpoint
  m_EditorClassIdentifier: 
  displayName: "La sc\xE8ne de test de Aymeric le s"
  description: "Ah bah on est l\xE0 gars"
  image: {fileID: 21300000, guid: a1f4eb4813502564dbe3b2d77b0745d1, type: 3}
  sceneField:
    m_SceneAsset: {fileID: 102900000, guid: 41873e9f078aaed4fbcf275b5b0110ba, type: 3}
    m_SceneName: AymericCheckpoint
  AssitantCount: 1
  AgentCount: 3
  difficulty: 0
  levelRuleSet: {fileID: 11400000, guid: 37877bc934dd0994d9c4e75567e4f1b3, type: 2}
  IsDevLevel: 1
